######################################################################
## PARAM_CARD AUTOMATICALY GENERATED BY THE UFO  #####################
######################################################################

###################################
## INFORMATION FOR SMINPUTS
###################################
Block SMINPUTS 
    1 1.325070e+02 # aEWM1 
    2 1.166390e-05 # Gf 
    3 1.180000e-01 # aS 

###################################
## INFORMATION FOR MASS
###################################
Block MASS 
    4 0.000000e+00 # MC 
    5 4.700000e+00 # MB 
    6 1.730000e+02 # MT 
   11 0.000000e+00 # Me 
   13 0.000000e+00 # MM 
   15 1.777000e+00 # MTA 
   23 9.118800e+01 # MZ 
   25 1.250000e+02 # MH 
   32 5.000000e+02 # MZp 

###################################
## INFORMATION FOR DECAY
###################################
DECAY   6 1.491500E+00
DECAY  15 0.000000e+00
DECAY  23 2.441404e+00 
DECAY  24 2.047600e+00 
DECAY  25 6.38233934e-03
DECAY  32 1.00000000e+01

###################################
## INFORMATION FOR WOLFENSTEIN
###################################
Block Wolfenstein 
    1 0.000000e+00 # lamWS 
    2 0.000000e+00 # AWS 
    3 0.000000e+00 # rhoWS 
    4 0.000000e+00 # etaWS 

###################################
## INFORMATION FOR YUKAWA
###################################
Block YUKAWA 
    4 0.000000e+00 # ymc 
    5 4.700000e+00 # ymb
    6 1.730000e+02 # ymt
   11 0.000000e+00 # yme 
   13 0.000000e+00 # ymm 
   15 1.777000e+00 # ymtau 

###################################
## INFORMATION FOR TCINPUTS
###################################
Block TCINPUTS 
    1 3.180000e+00 # cotH
    2 1.000000e+00 # f1
    3 1.000000e-03 # f2
