######################################################################
## PARAM_CARD AUTOMATICALY GENERATED BY THE UFO  #####################
######################################################################

###################################
## INFORMATION FOR SMINPUTS
###################################
Block SMINPUTS 
    1 1.279000e+02 # aEWM1 
    2 1.166370e-05 # Gf 
    3 1.184000e-01 # aS 

###################################
## INFORMATION FOR MASS
###################################
Block MASS 
    5 0.000000e+00 # MB 
    6 1.720000e+02 # MT 
   15 1.777000e+00 # MTA 
   23 9.118760e+01 # MZ 
   25 1.250000e+02 # MH 
##  Not dependent paramater.
## Those values should be edited following analytical the 
## analytical expression. Some generator could simply ignore 
## those values and use the analytical expression
  22 0.000000 # a : 0.0 
  24 79.824360 # W+ : cmath.sqrt(MZ**2/2. + cmath.sqrt(MZ**4/4. - (aEW*cmath.pi*MZ**2)/(Gf*cmath.sqrt(2)))) 
  21 0.000000 # g : 0.0 
  9000001 0.000000 # ghA : 0.0 
  9000003 79.824360 # ghWp : cmath.sqrt(MZ**2/2. + cmath.sqrt(MZ**4/4. - (aEW*cmath.pi*MZ**2)/(Gf*cmath.sqrt(2)))) 
  9000004 79.824360 # ghWm : cmath.sqrt(MZ**2/2. + cmath.sqrt(MZ**4/4. - (aEW*cmath.pi*MZ**2)/(Gf*cmath.sqrt(2)))) 
  82 0.000000 # ghG : 0.0 
  12 0.000000 # ve : 0.0 
  14 0.000000 # vm : 0.0 
  16 0.000000 # vt : 0.0 
  11 0.000000 # e- : 0.0 
  13 0.000000 # mu- : 0.0 
  2 0.000000 # u : 0.0 
  4 0.000000 # c : 0.0 
  1 0.000000 # d : 0.0 
  3 0.000000 # s : 0.0 
  251 79.824360 # G+ : cmath.sqrt(MZ**2/2. + cmath.sqrt(MZ**4/4. - (aEW*cmath.pi*MZ**2)/(Gf*cmath.sqrt(2)))) 

###################################
## INFORMATION FOR DECAY
###################################
DECAY   6 1.508336e+00 
DECAY  23 2.495200e+00 
DECAY  24 2.085000e+00 
DECAY  25 4.070000e-03 
##  Not dependent paramater.
## Those values should be edited following analytical the 
## analytical expression. Some generator could simply ignore 
## those values and use the analytical expression
DECAY  22 0.000000 # a : 0.0 
DECAY  21 0.000000 # g : 0.0 
DECAY  9000001 0.000000 # ghA : 0.0 
DECAY  82 0.000000 # ghG : 0.0 
DECAY  12 0.000000 # ve : 0.0 
DECAY  14 0.000000 # vm : 0.0 
DECAY  16 0.000000 # vt : 0.0 
DECAY  11 0.000000 # e- : 0.0 
DECAY  13 0.000000 # mu- : 0.0 
DECAY  15 0.000000 # ta- : 0.0 
DECAY  2 0.000000 # u : 0.0 
DECAY  4 0.000000 # c : 0.0 
DECAY  1 0.000000 # d : 0.0 
DECAY  3 0.000000 # s : 0.0 
DECAY  5 0.000000 # b : 0.0 

###################################
## INFORMATION FOR YUKAWA
###################################
Block YUKAWA 
    5 0.000000e+00 # ymb 
    6 1.720000e+02 # ymt 
   15 1.777000e+00 # ymtau 

###################################
## INFORMATION FOR AQGC
###################################
Block aqgc 
    1 0.000000e+00 # FS0 
    2 0.000000e+00 # FS1 
    3 0.000000e+00 # FS2 
    4 1.000000000e-08 # FM0 
    5 1.000001000e-08 # FM1 
    6 1.000002000e-08 # FM2 
    7 1.000003000e-08 # FM3 
    8 1.000004000e-08 # FM4 
    9 1.000005000e-08 # FM5 
   10 1.000006000e-08 # FM7 
   11 1.000007000e-08 # FM8 
   12 1.000008000e-08 # FM9 
   13 0.000000e+00 # FT0 
   14 0.000000e+00 # FT1 
   15 0.000000e+00 # FT2 
   16 0.000000e+00 # FT3 
   17 0.000000e+00 # FT4 
   18 0.000000e+00 # FT5 
   19 0.000000e+00 # FT6 
   20 0.000000e+00 # FT7 
   21 0.000000e+00 # FT8 
   22 0.000000e+00 # FT9 
   23 1.000009000e-08 # FM1odd 
   24 1.000010000e-08 # FM2odd 
   25 1.000011000e-08 # FM3odd 
   26 1.000012000e-08 # FM4odd 
   27 1.000013000e-08 # FM5odd 
   28 1.000014000e-08 # FM6odd 
   29 1.000015000e-08 # FT1odd 
   30 1.000016000e-08 # FT2odd 
   31 1.000017000e-08 # FT3odd 
   32 1.000018000e-08 # FT4odd 
   33 1.000019000e-08 # FT5odd 
   34 1.000020000e-08 # FT6odd 

###################################
## INFORMATION FOR AQGC_BIS
###################################
Block aqgc_bis 
    1 0.000000e+00 # cS1 
    2 0.000000e+00 # cS2 
    3 0.000000e+00 # cS3 
    4 0.000000e+00 # cM1 
    5 0.000000e+00 # cM2 
    6 0.000000e+00 # cM3 
    7 0.000000e+00 # cM4 
    8 0.000000e+00 # cM5 
    9 0.000000e+00 # cM6 
   10 0.000000e+00 # cM7 
   11 0.000000e+00 # cM8 
   12 0.000000e+00 # cM9 
   13 0.000000e+00 # cT1 
   14 0.000000e+00 # cT2 
   15 0.000000e+00 # cT3 
   16 0.000000e+00 # cT4 
   17 0.000000e+00 # cT5 
   18 0.000000e+00 # cT6 
   19 0.000000e+00 # cT7 
   20 0.000000e+00 # cT8 
   21 0.000000e+00 # cT9 
   22 0.000000e+00 # cT10 
#===========================================================
# QUANTUM NUMBERS OF NEW STATE(S) (NON SM PDG CODE)
#===========================================================

Block QNUMBERS 9000001  # ghA 
        1 0  # 3 times electric charge
        2 -1  # number of spin states (2S+1)
        3 1  # colour rep (1: singlet, 3: triplet, 8: octet)
        4 1  # Particle/Antiparticle distinction (0=own anti)
Block QNUMBERS 9000002  # ghZ 
        1 0  # 3 times electric charge
        2 -1  # number of spin states (2S+1)
        3 1  # colour rep (1: singlet, 3: triplet, 8: octet)
        4 1  # Particle/Antiparticle distinction (0=own anti)
Block QNUMBERS 9000003  # ghWp 
        1 3  # 3 times electric charge
        2 -1  # number of spin states (2S+1)
        3 1  # colour rep (1: singlet, 3: triplet, 8: octet)
        4 1  # Particle/Antiparticle distinction (0=own anti)
Block QNUMBERS 9000004  # ghWm 
        1 -3  # 3 times electric charge
        2 -1  # number of spin states (2S+1)
        3 1  # colour rep (1: singlet, 3: triplet, 8: octet)
        4 1  # Particle/Antiparticle distinction (0=own anti)
Block QNUMBERS 82  # ghG 
        1 0  # 3 times electric charge
        2 -1  # number of spin states (2S+1)
        3 8  # colour rep (1: singlet, 3: triplet, 8: octet)
        4 1  # Particle/Antiparticle distinction (0=own anti)
Block QNUMBERS 250  # G0 
        1 0  # 3 times electric charge
        2 3  # number of spin states (2S+1)
        3 1  # colour rep (1: singlet, 3: triplet, 8: octet)
        4 0  # Particle/Antiparticle distinction (0=own anti)
Block QNUMBERS 251  # G+ 
        1 3  # 3 times electric charge
        2 3  # number of spin states (2S+1)
        3 1  # colour rep (1: singlet, 3: triplet, 8: octet)
        4 1  # Particle/Antiparticle distinction (0=own anti)
