# This file was automatically created by FeynRules 2.3.49_fne
# Mathematica version: 13.1.0 for Mac OS X ARM (64-bit) (June 16, 2022)
# Date: Tue 28 Nov 2023 12:48:42


# 
# This is the logfile for the model lrsm_mix_1_7

# Authors: G. Eilam, S. Bar-Shalom, A. Roitgrund, M. Nemevsek, F. Nesti, A. Maiezza, J. Vasquez
# Model version: 1.7
# Checking the Quantum numbers
   * Electric charge defined.
# Checking the Lagrangians
   * All Lagrangians are ok.
#
# Particle definitions
#

   * No particles removed. All particles correspond to GenInt setup.

# Automatically assigned PDG numbers
   * Assigned PDG number 9000001 to particle ghG


# Compulsory PDG codes:
   * Class SM leptons complete.
   * Class SM neutrinos complete.
   * Class SM quarks complete.
   * Class SM gauge bosons complete.
#
# Parameter definitions
#

   * All parameters are ok.


# Vertices
   * Calling FeynmanRules for 1 Lagrangians.
   * Number of classes vertices: 675
   * Number of flavored vertices: 675
   * Saved vertices in InterfaceRun[ 1 ].
   * Checked QNumber conservation.
      - Quantum number GhostNumber conserved in all vertices.
      - Quantum number LeptonNumber NOT conserved in the following vertices
          {HP2bar, ebar, N1}
          {HP2bar, ebar, v1}
          {HP2bar, mubar, N2}
          {HP2bar, mubar, v2}
          {HP2bar, tabar, N3}
          {HP2bar, tabar, v3}
          {HP2, v1, e}
          {HP2, v2, mu}
          {HP2, v3, ta}
          {HP2, N1, e}
          {HP2, N2, mu}
          {HP2, N3, ta}
          {HPPRbar, ebar, ebar}
          {HPPRbar, mubar, mubar}
          {HPPRbar, tabar, tabar}
          {HP1bar, ebar, v1}
          {HP1bar, mubar, v2}
          {HP1bar, tabar, v3}
          {HP1bar, ebar, N1}
          {HP1bar, mubar, N2}
          {HP1bar, tabar, N3}
          {HPPLbar, ebar, ebar}
          {HPPLbar, mubar, mubar}
          {HPPLbar, tabar, tabar}
          {HPPR, e, e}
          {HP1, N1, e}
          {HP1, v1, e}
          {HPPL, e, e}
          {HPPR, mu, mu}
          {HP1, N2, mu}
          {HP1, v2, mu}
          {HPPL, mu, mu}
          {HPPR, ta, ta}
          {HP1, N3, ta}
          {HP1, v3, ta}
          {HPPL, ta, ta}
          {W, v1, e}
          {W, v2, mu}
          {W, v3, ta}
          {W, N1, e}
          {W, N2, mu}
          {W, N3, ta}
          {W2, v1, e}
          {W2, v2, mu}
          {W2, v3, ta}
          {W2, N1, e}
          {W2, N2, mu}
          {W2, N3, ta}
          {W2bar, ebar, N1}
          {W2bar, ebar, v1}
          {W2bar, mubar, N2}
          {W2bar, mubar, v2}
          {W2bar, tabar, N3}
          {W2bar, tabar, v3}
          {Wbar, ebar, N1}
          {Wbar, ebar, v1}
          {Wbar, mubar, N2}
          {Wbar, mubar, v2}
          {Wbar, tabar, N3}
          {Wbar, tabar, v3}
      - Quantum number Q conserved in all vertices.
      - Quantum number Y conserved in all vertices.
   * particles.py written.
   * parameters.py written.
#
# Vertex definitions
#

   * 1392 vertices written.
   * vertices.py written.
#
# Lorentz structure definitions
#

   * 23 lorentz structures written.
   * lorentz.py written.
#
# Coupling definitions
#

   >>>> Non positive interaction order EWL found for coupling GC_97.
   >>>> Non positive interaction order EWL found for coupling GC_98.
   >>>> Non positive interaction order EWL found for coupling GC_99.
   >>>> Non positive interaction order EWL found for coupling GC_100.
   >>>> Non positive interaction order EWL found for coupling GC_109.
   >>>> Non positive interaction order EWL found for coupling GC_110.
   >>>> Non positive interaction order EWL found for coupling GC_128.
   >>>> Non positive interaction order EWL found for coupling GC_129.
   >>>> Non positive interaction order EWL found for coupling GC_132.
   >>>> Non positive interaction order EWL found for coupling GC_135.
   >>>> Non positive interaction order EWL found for coupling GC_148.
   >>>> Non positive interaction order EWL found for coupling GC_149.
   >>>> Non positive interaction order EWL found for coupling GC_152.
   >>>> Non positive interaction order EWL found for coupling GC_153.
   >>>> Non positive interaction order EWL found for coupling GC_166.
   >>>> Non positive interaction order EWL found for coupling GC_167.
   >>>> Non positive interaction order EWL found for coupling GC_168.
   >>>> Non positive interaction order EWL found for coupling GC_169.
   >>>> Non positive interaction order EWL found for coupling GC_170.
   >>>> Non positive interaction order EWL found for coupling GC_171.
   >>>> Non positive interaction order EWL found for coupling GC_172.
   >>>> Non positive interaction order EWL found for coupling GC_173.
   >>>> Non positive interaction order EWL found for coupling GC_174.
   >>>> Non positive interaction order EWL found for coupling GC_175.
   >>>> Non positive interaction order EWL found for coupling GC_176.
   >>>> Non positive interaction order EWL found for coupling GC_177.
   >>>> Non positive interaction order EWL found for coupling GC_236.
   >>>> Non positive interaction order EWL found for coupling GC_237.
   >>>> Non positive interaction order EWL found for coupling GC_238.
   >>>> Non positive interaction order EWL found for coupling GC_239.
   >>>> Non positive interaction order EWL found for coupling GC_240.
   >>>> Non positive interaction order EWL found for coupling GC_250.
   >>>> Non positive interaction order EWL found for coupling GC_251.
   >>>> Non positive interaction order EWL found for coupling GC_252.
   >>>> Non positive interaction order EWL found for coupling GC_253.
   >>>> Non positive interaction order EWL found for coupling GC_258.
   >>>> Non positive interaction order EWL found for coupling GC_260.
   >>>> Non positive interaction order EWL found for coupling GC_265.
   >>>> Non positive interaction order EWL found for coupling GC_267.
   >>>> Non positive interaction order EWL found for coupling GC_274.
   >>>> Non positive interaction order EWL found for coupling GC_275.
   >>>> Non positive interaction order EWL found for coupling GC_276.
   >>>> Non positive interaction order EWL found for coupling GC_277.
   >>>> Non positive interaction order EWL found for coupling GC_284.
   >>>> Non positive interaction order EWL found for coupling GC_285.
   >>>> Non positive interaction order EWL found for coupling GC_290.
   >>>> Non positive interaction order EWL found for coupling GC_291.
   >>>> Non positive interaction order EWL found for coupling GC_293.
   >>>> Non positive interaction order EWL found for coupling GC_296.
   >>>> Non positive interaction order EWL found for coupling GC_297.
   >>>> Non positive interaction order EWL found for coupling GC_299.
   >>>> Non positive interaction order EWL found for coupling GC_302.
   >>>> Non positive interaction order EWL found for coupling GC_303.
   >>>> Non positive interaction order EWL found for coupling GC_305.
   >>>> Non positive interaction order EWL found for coupling GC_307.
   >>>> Non positive interaction order EWL found for coupling GC_355.
   >>>> Non positive interaction order EWL found for coupling GC_356.
   >>>> Non positive interaction order EWL found for coupling GC_361.
   >>>> Non positive interaction order EWL found for coupling GC_362.
   >>>> Non positive interaction order EWL found for coupling GC_365.
   >>>> Non positive interaction order EWL found for coupling GC_368.
   >>>> Non positive interaction order EWL found for coupling GC_371.
   >>>> Non positive interaction order EWL found for coupling GC_374.
   >>>> Non positive interaction order EWL found for coupling GC_379.
   >>>> Non positive interaction order EWL found for coupling GC_380.
   >>>> Non positive interaction order EWL found for coupling GC_382.
   >>>> Non positive interaction order EWL found for coupling GC_384.
   >>>> Non positive interaction order EWL found for coupling GC_457.
   >>>> Non positive interaction order EWL found for coupling GC_458.
   >>>> Non positive interaction order EWL found for coupling GC_459.
   >>>> Non positive interaction order EWL found for coupling GC_460.
   >>>> Non positive interaction order EWL found for coupling GC_466.
   >>>> Non positive interaction order EWL found for coupling GC_472.
   >>>> Non positive interaction order EWL found for coupling GC_473.
   >>>> Non positive interaction order EWL found for coupling GC_474.
   >>>> Non positive interaction order EWL found for coupling GC_475.
   >>>> Non positive interaction order EWL found for coupling GC_480.
   >>>> Non positive interaction order EWL found for coupling GC_481.
   >>>> Non positive interaction order EWL found for coupling GC_489.
   >>>> Non positive interaction order EWL found for coupling GC_490.
   >>>> Non positive interaction order EWL found for coupling GC_491.
   >>>> Non positive interaction order EWL found for coupling GC_493.
   >>>> Non positive interaction order EWL found for coupling GC_495.
   >>>> Non positive interaction order EWL found for coupling GC_496.
   >>>> Non positive interaction order EWL found for coupling GC_498.
   >>>> Non positive interaction order EWL found for coupling GC_500.
   >>>> Non positive interaction order EWL found for coupling GC_502.
   >>>> Non positive interaction order EWL found for coupling GC_503.
   >>>> Non positive interaction order EWL found for coupling GC_504.
   >>>> Non positive interaction order EWL found for coupling GC_506.
   >>>> Non positive interaction order EWL found for coupling GC_508.
   >>>> Non positive interaction order EWL found for coupling GC_509.
   >>>> Non positive interaction order EWL found for coupling GC_510.
   >>>> Non positive interaction order EWL found for coupling GC_511.
   >>>> Non positive interaction order EWL found for coupling GC_512.
   >>>> Non positive interaction order EWL found for coupling GC_513.
   >>>> Non positive interaction order EWL found for coupling GC_516.
   >>>> Non positive interaction order EWL found for coupling GC_517.
   >>>> Non positive interaction order EWL found for coupling GC_522.
   >>>> Non positive interaction order EWL found for coupling GC_525.
   >>>> Non positive interaction order EWL found for coupling GC_526.
   >>>> Non positive interaction order EWL found for coupling GC_678.
   >>>> Non positive interaction order EWL found for coupling GC_679.
   >>>> Non positive interaction order EWL found for coupling GC_680.
   >>>> Non positive interaction order EWL found for coupling GC_681.
   >>>> Non positive interaction order EWL found for coupling GC_682.
   >>>> Non positive interaction order EWL found for coupling GC_683.
   >>>> Non positive interaction order EWL found for coupling GC_687.
   >>>> Non positive interaction order EWL found for coupling GC_689.
   >>>> Non positive interaction order EWL found for coupling GC_690.
   >>>> Non positive interaction order EWL found for coupling GC_691.
   >>>> Non positive interaction order EWL found for coupling GC_692.
   >>>> Non positive interaction order EWL found for coupling GC_693.
   >>>> Non positive interaction order EWL found for coupling GC_740.
   >>>> Non positive interaction order EWL found for coupling GC_741.
   >>>> Non positive interaction order EWL found for coupling GC_748.
   >>>> Non positive interaction order EWL found for coupling GC_753.
   >>>> Non positive interaction order EWL found for coupling GC_754.
   >>>> Non positive interaction order EWL found for coupling GC_755.
   >>>> Non positive interaction order EWL found for coupling GC_757.
   >>>> Non positive interaction order EWL found for coupling GC_758.
   >>>> Non positive interaction order EWL found for coupling GC_761.
   >>>> Non positive interaction order EWL found for coupling GC_762.
   >>>> Non positive interaction order EWL found for coupling GC_763.
   >>>> Non positive interaction order EWL found for coupling GC_765.
   >>>> Non positive interaction order EWL found for coupling GC_769.
   >>>> Non positive interaction order EWL found for coupling GC_770.
   >>>> Non positive interaction order EWL found for coupling GC_771.
   >>>> Non positive interaction order EWL found for coupling GC_772.
   >>>> Non positive interaction order EWL found for coupling GC_773.
   >>>> Non positive interaction order EWL found for coupling GC_774.
   >>>> Non positive interaction order EWL found for coupling GC_775.
   >>>> Non positive interaction order EWL found for coupling GC_776.
   >>>> Non positive interaction order EWL found for coupling GC_780.
   >>>> Non positive interaction order EWL found for coupling GC_781.
   >>>> Non positive interaction order EWL found for coupling GC_783.
   >>>> Non positive interaction order EWL found for coupling GC_784.
   >>>> Non positive interaction order EWL found for coupling GC_785.
   >>>> Non positive interaction order EWL found for coupling GC_786.
   >>>> Non positive interaction order EWL found for coupling GC_787.
   >>>> Non positive interaction order EWL found for coupling GC_788.
   >>>> Non positive interaction order EWL found for coupling GC_789.
   >>>> Non positive interaction order EWL found for coupling GC_790.
   >>>> Non positive interaction order EWL found for coupling GC_791.
   >>>> Non positive interaction order EWL found for coupling GC_792.
   >>>> Non positive interaction order EWL found for coupling GC_793.
   >>>> Non positive interaction order EWL found for coupling GC_795.
   >>>> Non positive interaction order EWR found for coupling GC_796.
   >>>> Non positive interaction order EWR found for coupling GC_797.
   >>>> Non positive interaction order EWR found for coupling GC_798.
   >>>> Non positive interaction order EWR found for coupling GC_799.
   >>>> Non positive interaction order EWR found for coupling GC_800.
   >>>> Non positive interaction order EWL found for coupling GC_801.
   >>>> Non positive interaction order EWR found for coupling GC_802.
   >>>> Non positive interaction order EWR found for coupling GC_803.
   >>>> Non positive interaction order EWL found for coupling GC_804.
   >>>> Non positive interaction order EWR found for coupling GC_805.
   >>>> Non positive interaction order EWR found for coupling GC_807.
   >>>> Non positive interaction order EWR found for coupling GC_809.
   >>>> Non positive interaction order EWL found for coupling GC_810.
   >>>> Non positive interaction order EWR found for coupling GC_811.
   >>>> Non positive interaction order EWL found for coupling GC_812.
   >>>> Non positive interaction order EWR found for coupling GC_813.
   >>>> Non positive interaction order EWR found for coupling GC_814.
   >>>> Non positive interaction order EWR found for coupling GC_815.
   >>>> Non positive interaction order EWR found for coupling GC_816.
   >>>> Non positive interaction order EWL found for coupling GC_817.
   >>>> Non positive interaction order EWL found for coupling GC_819.
   >>>> Non positive interaction order EWR found for coupling GC_820.
   >>>> Non positive interaction order EWR found for coupling GC_821.
   >>>> Non positive interaction order EWR found for coupling GC_822.
   >>>> Non positive interaction order EWR found for coupling GC_823.
   >>>> Non positive interaction order EWL found for coupling GC_824.
   >>>> Non positive interaction order EWL found for coupling GC_826.
   >>>> Non positive interaction order EWR found for coupling GC_827.
   >>>> Non positive interaction order EWR found for coupling GC_828.
   >>>> Non positive interaction order EWR found for coupling GC_829.
   >>>> Non positive interaction order EWL found for coupling GC_830.
   >>>> Non positive interaction order EWL found for coupling GC_831.
   >>>> Non positive interaction order EWL found for coupling GC_833.
   >>>> Non positive interaction order EWR found for coupling GC_834.
   >>>> Non positive interaction order EWR found for coupling GC_835.
   >>>> Non positive interaction order EWR found for coupling GC_836.
   >>>> Non positive interaction order EWL found for coupling GC_837.
   >>>> Non positive interaction order EWL found for coupling GC_838.
   >>>> Non positive interaction order EWL found for coupling GC_840.
   >>>> Non positive interaction order EWR found for coupling GC_841.
   >>>> Non positive interaction order EWL found for coupling GC_842.
   >>>> Non positive interaction order EWR found for coupling GC_843.
   >>>> Non positive interaction order EWL found for coupling GC_844.
   >>>> Non positive interaction order EWR found for coupling GC_847.
   >>>> Non positive interaction order EWR found for coupling GC_848.
   >>>> Non positive interaction order EWR found for coupling GC_849.
   >>>> Non positive interaction order EWR found for coupling GC_852.
   >>>> Non positive interaction order EWR found for coupling GC_853.
   >>>> Non positive interaction order EWR found for coupling GC_854.
   >>>> Non positive interaction order EWR found for coupling GC_857.
   >>>> Non positive interaction order EWR found for coupling GC_858.
   >>>> Non positive interaction order EWL found for coupling GC_859.
   >>>> Non positive interaction order EWL found for coupling GC_862.
   >>>> Non positive interaction order EWR found for coupling GC_863.
   >>>> Non positive interaction order EWR found for coupling GC_864.
   >>>> Non positive interaction order EWL found for coupling GC_865.
   >>>> Non positive interaction order EWL found for coupling GC_868.
   >>>> Non positive interaction order EWR found for coupling GC_869.
   >>>> Non positive interaction order EWL found for coupling GC_871.
   >>>> Non positive interaction order EWR found for coupling GC_873.
   >>>> Non positive interaction order EWL found for coupling GC_875.
   * 1176 couplings written.
   * couplings.py written.
#
# Coupling order definitions
#

   * 0 couplings orders written.
   * coupling_orders.py written.
#
# CTCoupling definitions
#

   * 0 CTcouplings written.
   * CT_couplings.py written.
