# This file was automatically created by FeynRules 2.3.19
# Mathematica version: 10.1.0  for Mac OS X x86 (64-bit) (March 24, 2015)
# Date: Wed 30 Mar 2016 12:51:41


# 
# This is the logfile for the model 2HDM

# Authors: C. Duhr, M. Herquet, C. Degrande
# Model version: 1.2
# Checking the Quantum numbers
   * Electric charge defined.
# Checking the Lagrangians
   * All Lagrangians are ok.
#
# Particle definitions
#

   * No particles removed. All particles correspond to GenInt setup.

# Automatically assigned PDG numbers
   * Assigned PDG number 9000001 to particle ghA
   * Assigned PDG number 9000002 to particle ghZ
   * Assigned PDG number 9000003 to particle ghWp
   * Assigned PDG number 9000004 to particle ghWm


# Compulsory PDG codes:
   * Class SM leptons complete.
   * Class SM neutrinos complete.
   * Class SM quarks complete.
   * Class SM gauge bosons complete.
#
# Parameter definitions
#

   * All parameters are ok.


# Vertices
   * Calling FeynmanRules for 1 Lagrangians.
   * Number of classes vertices: 282
   * Number of flavored vertices: 487
   * Saved vertices in InterfaceRun[ 1 ].
   * Checked QNumber conservation.
      - Quantum number GhostNumber conserved in all vertices.
      - Quantum number LeptonNumber conserved in all vertices.
      - Quantum number Q conserved in all vertices.
      - Quantum number Y conserved in all vertices.
   * particles.py written.
   * parameters.py written.
#
# Vertex definitions
#

   * 457 vertices written.
   * vertices.py written.
#
# Lorentz structure definitions
#

   * 36 lorentz structures written.
   * lorentz.py written.
#
# Coupling definitions
#

   * 529 couplings written.
   * couplings.py written.
#
# Coupling order definitions
#

   * 0 couplings orders written.
   * coupling_orders.py written.
#
# Decay definitions
#

   * 8 decays written.
   * decay.py not written
#
# CTCoupling definitions
#

   * 764 CTcouplings written.
   * CT_couplings.py written.
#
# CTVertex definitions
#

   * 241 CTvertices written.
   * CT_vertices.py written.
